{
  "$defs": {
    "Meta": {
      "description": "Meta holds information about arbitrary things.",
      "patternProperties": {
        ".*": {
          "type": "string"
        }
      },
      "type": "object"
    },
    "Trigger": {
      "additionalProperties": false,
      "description": "Trigger defines a server-side work_order to apply Blueprints to matching Machines.",
      "properties": {
        "AllInFilter": {
          "description": "AllInFilter if true cause a work_order created for all machines in the filter",
          "type": "boolean"
        },
        "Available": {
          "description": "Available tracks whether or not the model passed validation.\nread only: true",
          "type": "boolean"
        },
        "Blueprint": {
          "description": "Blueprint is template to apply",
          "type": "string"
        },
        "Bundle": {
          "description": "Bundle tracks the name of the store containing this object.\nThis field is read-only, and cannot be changed via the API.\n\nread only: true",
          "type": "string"
        },
        "Description": {
          "description": "Description is a one-line description of the parameter.",
          "type": "string"
        },
        "Documentation": {
          "description": "Documentation details what the parameter does, what values it can\ntake, what it is used for, etc.",
          "type": "string"
        },
        "Enabled": {
          "description": "Enabled is this Trigger enabled",
          "type": "boolean"
        },
        "Endpoint": {
          "description": "Endpoint tracks the owner of the object among DRP endpoints\nread only: true",
          "type": "string"
        },
        "Errors": {
          "description": "If there are any errors in the validation process, they will be\navailable here.\nread only: true",
          "items": {
            "type": "string"
          },
          "type": "array"
        },
        "Filter": {
          "description": "Filter is a \"list\"-style filter string to find machines to apply the cron too\nFilter is already assumed to have WorkOrderMode == true && Runnable == true",
          "type": "string"
        },
        "FilterCount": {
          "description": "FilterCount defines the number of machines to apply the work_order to.  Only one work_order per trigger fire.",
          "type": "integer"
        },
        "MergeDataIntoParams": {
          "description": "MergeDataIntoParams if true causes the data from the trigger to be merged into the Params of the work_order.",
          "type": "boolean"
        },
        "Meta": {
          "$ref": "#/$defs/Meta"
        },
        "Name": {
          "description": "Name is the key of this particular Trigger.\nrequired: true",
          "type": "string"
        },
        "Params": {
          "additionalProperties": true,
          "description": "Params parameters to tweak the TriggerProvider",
          "type": "object"
        },
        "Profiles": {
          "description": "Profiles to tweak the TriggerProvider",
          "items": {
            "type": "string"
          },
          "type": "array"
        },
        "QueueMode": {
          "description": "QueueMode if true causes work_orders to be created without a machine, but with a filter for delayed operation",
          "type": "boolean"
        },
        "ReadOnly": {
          "description": "ReadOnly tracks if the store for this object is read-only.\nThis flag is informational, and cannot be changed via the API.\n\nread only: true",
          "type": "boolean"
        },
        "StoreDataInParameter": {
          "description": "StoreDataInParameter if set tells the triggers data to be stored in the parameter in the Params of the work_order.",
          "type": "string"
        },
        "TriggerProvider": {
          "description": "TriggerProvider is the name of the method of this trigger",
          "type": "string"
        },
        "Validated": {
          "description": "Validated tracks whether or not the model has been validated.\nread only: true",
          "type": "boolean"
        },
        "WorkOrderParams": {
          "description": "WorkOrderParams that have been directly set on the Trigger and will be moved to the work order.",
          "type": "object"
        },
        "WorkOrderProfiles": {
          "description": "WorkOrderProfiles to apply to this machine in order when looking\nfor a parameter during rendering.",
          "items": {
            "type": "string"
          },
          "type": "array"
        }
      },
      "type": "object"
    }
  },
  "$id": "https://gitlab.com/rackn/provision/v4/models/trigger",
  "$ref": "#/$defs/Trigger",
  "$schema": "https://json-schema.org/draft/2020-12/schema"
}